module gitlab.com/sdrig/todo

go 1.14

require (
	github.com/alecthomas/template v0.0.0-20190718012654-fb15b899a751
	github.com/gin-contrib/cors v1.3.1
	github.com/gin-gonic/gin v1.6.3
	github.com/go-openapi/spec v0.19.7 // indirect
	github.com/go-openapi/swag v0.19.9 // indirect
	github.com/golang/protobuf v1.4.1 // indirect
	github.com/hashicorp/go-memdb v1.2.1
	github.com/joho/godotenv v1.3.0
	github.com/mailru/easyjson v0.7.1 // indirect
	github.com/stretchr/testify v1.5.1
	github.com/swaggo/files v0.0.0-20190704085106-630677cd5c14
	github.com/swaggo/gin-swagger v1.2.0
	github.com/swaggo/swag v1.6.5
	golang.org/x/net v0.0.0-20200506145744-7e3656a0809f // indirect
	golang.org/x/sys v0.0.0-20200508214444-3aab700007d7 // indirect
	golang.org/x/tools v0.0.0-20200508232336-ead0a569305d // indirect
)
